{
  "type": "FeatureCollection",
  "features": [
    {
      "type": "Feature",
      "properties": {
        "source": "https://www.zotero.org/groups/pleiades/items/itemKey/44QICIGK"
      },
      "geometry": {
        "type": "Polygon",
        "coordinates": [
          [
            [
              11.053798379506292,
              44.49873452800404
            ],
            [
              11.014200260403047,
              44.43387913463749
            ],
            [
              10.745877440789217,
              44.51846652782242
            ],
            [
              10.792185701414143,
              44.58116281018797
            ],
            [
              11.053798379506292,
              44.49873452800404
            ]
          ]
        ]
      }
    },
    {
      "type": "Feature",
      "properties": {
        "name": "Sassuolo, Giumentone",
        "label": "Q",
        "source": "https://www.zotero.org/groups/pleiades/items/itemKey/44QICIGK"
      },
      "geometry": {
        "type": "Point",
        "coordinates": [
          10.779283176204247,
          44.52732603076051
        ]
      }
    },
    {
      "type": "Feature",
      "properties": {
        "name": "Sassuolo, Montegibbio",
        "label": "R",
        "source": "https://www.zotero.org/groups/pleiades/items/itemKey/44QICIGK"
      },
      "geometry": {
        "type": "Point",
        "coordinates": [
          10.784585016418909,
          44.51232314822769
        ]
      }
    },
    {
      "type": "Feature",
      "properties": {
        "name": "Maranello, Torre delle Oche",
        "label": "P",
        "source": "https://www.zotero.org/groups/pleiades/items/itemKey/44QICIGK"
      },
      "geometry": {
        "type": "Point",
        "coordinates": [
          10.827828150669735,
          44.50405219141738
        ]
      }
    },
    {
      "type": "Feature",
      "properties": {
        "name": "Castelvetro, Grillenzona",
        "label": "N",
        "source": "https://www.zotero.org/groups/pleiades/items/itemKey/44QICIGK"
      },
      "geometry": {
        "type": "Point",
        "coordinates": [
          10.909012578956721,
          44.533349723181466
        ]
      }
    },
    {
      "type": "Feature",
      "properties": {
        "name": "Castelvetro, Medusi",
        "label": "I",
        "source": "https://www.zotero.org/groups/pleiades/items/itemKey/44QICIGK"
      },
      "geometry": {
        "type": "Point",
        "coordinates": [
          10.913817371651259,
          44.494952783382125
        ]
      }
    },
    {
      "type": "Feature",
      "properties": {
        "name": "Castelvetro, Agnano",
        "label": "G",
        "source": "https://www.zotero.org/groups/pleiades/items/itemKey/44QICIGK"
      },
      "geometry": {
        "type": "Point",
        "coordinates": [
          10.935190415016608,
          44.51019644285627
        ]
      }
    },
    {
      "type": "Feature",
      "properties": {
        "name": "Castelvetro, Ariano",
        "label": "E",
        "source": "https://www.zotero.org/groups/pleiades/items/itemKey/44QICIGK"
      },
      "geometry": {
        "type": "Point",
        "coordinates": [
          10.956066410861833,
          44.50417035620658
        ]
      }
    },
    {
      "type": "Feature",
      "properties": {
        "name": "Castelvetro, Collecchio",
        "label": "D",
        "source": "https://www.zotero.org/groups/pleiades/items/itemKey/44QICIGK"
      },
      "geometry": {
        "type": "Point",
        "coordinates": [
          10.97246897902594,
          44.5119687027216
        ]
      }
    },
    {
      "type": "Feature",
      "properties": {
        "name": "Castelvetro, Molza-San Pietro",
        "label": "H",
        "source": "https://www.zotero.org/groups/pleiades/items/itemKey/44QICIGK"
      },
      "geometry": {
        "type": "Point",
        "coordinates": [
          10.957557553422207,
          44.48679756195088
        ]
      }
    },
    {
      "type": "Feature",
      "properties": {
        "name": "Castelvetro, Borgorondoni",
        "label": "M",
        "source": "https://www.zotero.org/groups/pleiades/items/itemKey/44QICIGK"
      },
      "geometry": {
        "type": "Point",
        "coordinates": [
          10.931048352348906,
          44.52189236205115
        ]
      }
    },
    {
      "type": "Feature",
      "properties": {
        "name": "Castelvetro, Riva di Sotto",
        "label": "L",
        "source": "https://www.zotero.org/groups/pleiades/items/itemKey/44QICIGK"
      },
      "geometry": {
        "type": "Point",
        "coordinates": [
          10.916468291758589,
          44.50558831499465
        ]
      }
    },
    {
      "type": "Feature",
      "properties": {
        "name": "Castelvetro, Campo sportivo",
        "label": "F",
        "source": "https://www.zotero.org/groups/pleiades/items/itemKey/44QICIGK"
      },
      "geometry": {
        "type": "Point",
        "coordinates": [
          10.94943911059351,
          44.50552923406708
        ]
      }
    },
    {
      "type": "Feature",
      "properties": {
        "name": "Castelnuovo, Cà del Cristo",
        "label": "O",
        "source": "https://www.zotero.org/groups/pleiades/items/itemKey/44QICIGK"
      },
      "geometry": {
        "type": "Point",
        "coordinates": [
          10.922515703253442,
          44.537040403363086
        ]
      }
    },
    {
      "type": "Feature",
      "properties": {
        "name": "Savignano, Pratoguarrato",
        "label": "B",
        "source": "https://www.zotero.org/groups/pleiades/items/itemKey/44QICIGK"
      },
      "geometry": {
        "type": "Point",
        "coordinates": [
          11.033398720867867,
          44.485260943295415
        ]
      }
    },
    {
      "type": "Feature",
      "properties": {
        "label": "A",
        "name": "Savignano, Melda di Sotto",
        "source": "https://www.zotero.org/groups/pleiades/items/itemKey/44QICIGK"
      },
      "geometry": {
        "type": "Point",
        "coordinates": [
          11.048144463964892,
          44.49784820361378
        ]
      }
    },
    {
      "type": "Feature",
      "properties": {
        "name": "Spilamberto, Ergastolo",
        "label": "C",
        "source": "https://www.zotero.org/groups/pleiades/items/itemKey/44QICIGK"
      },
      "geometry": {
        "type": "Point",
        "coordinates": [
          10.988084555283193,
          44.51545398990991
        ]
      }
    }
  ]
}
